167.114.173.115 - - [08/Apr/2021:11:24:00 +0300] "GET /new/?sect=337099 HTTP/1.0" 200 135604 "-" "Mozilla/5.0 (compatible; MJ12bot/v1.4.8; http://mj12bot.com/)"
54.36.149.43 - - [08/Apr/2021:11:24:01 +0300] "GET /new/?sect=380869 HTTP/1.0" 200 135600 "-" "Mozilla/5.0 (compatible; AhrefsBot/7.0; +http://ahrefs.com/robot/)"
178.250.158.217 - - [08/Apr/2021:11:24:01 +0300] "GET /bitrix/php_interface/cron_events.php HTTP/1.0" 200 - "-" "Wget/1.14 (linux-gnu)"
185.191.171.25 - - [08/Apr/2021:11:24:04 +0300] "GET /new/?sect=308714 HTTP/1.0" 200 135600 "-" "Mozilla/5.0 (compatible; SemrushBot/7~bl; +http://www.semrush.com/bot.html)"
54.36.148.84 - - [08/Apr/2021:11:24:07 +0300] "GET /new/?sect=377883 HTTP/1.0" 200 135600 "-" "Mozilla/5.0 (compatible; AhrefsBot/7.0; +http://ahrefs.com/robot/)"
213.180.203.35 - - [08/Apr/2021:11:24:08 +0300] "GET /catalog/detskaya_komnata/mebel_dlya_detskoy_komnaty/kolybeli/kolybel_pristavnaya/pituso_vitoria/ HTTP/1.0" 200 135369 "-" "Mozilla/5.0 (compatible; YandexBot/3.0; +http://yandex.com/bots)"
13.66.139.56 - - [08/Apr/2021:11:24:09 +0300] "GET /upload/iblock/83a/UT000071054_06.jpg HTTP/1.0" 404 81423 "-" "Mozilla/5.0 (compatible; bingbot/2.0; +http://www.bing.com/bingbot.htm)"
178.205.63.100 - - [08/Apr/2021:11:24:13 +0300] "GET /catalog/detskaya_komnata/mebel_dlya_detskoy_komnaty/elektrokacheli/ HTTP/1.0" 200 111437 "https://www.marsgroup.ru/catalog/detskaya_komnata/mebel_dlya_detskoy_komnaty/kolybeli/" "Mozilla/5.0 (Windows NT 5.1) AppleWebKit/537.36 (KHTML, like Gecko) Chrome/57.0.2987.137 YaBrowser/17.4.1.1026 Yowser/2.5 Safari/537.36"
54.36.148.82 - - [08/Apr/2021:11:24:14 +0300] "GET /new/?sect=380873 HTTP/1.0" 200 135600 "-" "Mozilla/5.0 (compatible; AhrefsBot/7.0; +http://ahrefs.com/robot/)"
178.205.63.100 - - [08/Apr/2021:11:24:15 +0300] "GET /bitrix/templates/mars1/js/script.js?1617870254 HTTP/1.1" 200 17399 "https://www.marsgroup.ru/catalog/detskaya_komnata/mebel_dlya_detskoy_komnaty/elektrokacheli/" "Mozilla/5.0 (Windows NT 5.1) AppleWebKit/537.36 (KHTML, like Gecko) Chrome/57.0.2987.137 YaBrowser/17.4.1.1026 Yowser/2.5 Safari/537.36"
178.205.63.100 - - [08/Apr/2021:11:24:15 +0300] "GET /bitrix/templates/mars1/css/mobile.css?1617870254 HTTP/1.1" 200 18898 "https://www.marsgroup.ru/catalog/detskaya_komnata/mebel_dlya_detskoy_komnaty/elektrokacheli/" "Mozilla/5.0 (Windows NT 5.1) AppleWebKit/537.36 (KHTML, like Gecko) Chrome/57.0.2987.137 YaBrowser/17.4.1.1026 Yowser/2.5 Safari/537.36"
178.205.63.100 - - [08/Apr/2021:11:24:15 +0300] "GET /bitrix/templates/mars1/css/style.css?1617870254 HTTP/1.1" 200 52539 "https://www.marsgroup.ru/catalog/detskaya_komnata/mebel_dlya_detskoy_komnaty/elektrokacheli/" "Mozilla/5.0 (Windows NT 5.1) AppleWebKit/537.36 (KHTML, like Gecko) Chrome/57.0.2987.137 YaBrowser/17.4.1.1026 Yowser/2.5 Safari/537.36"
178.205.63.100 - - [08/Apr/2021:11:24:15 +0300] "GET /upload/iblock/2f9/UT000070651.jpg HTTP/1.0" 404 81420 "https://www.marsgroup.ru/catalog/detskaya_komnata/mebel_dlya_detskoy_komnaty/elektrokacheli/" "Mozilla/5.0 (Windows NT 5.1) AppleWebKit/537.36 (KHTML, like Gecko) Chrome/57.0.2987.137 YaBrowser/17.4.1.1026 Yowser/2.5 Safari/537.36"
178.205.63.100 - - [08/Apr/2021:11:24:16 +0300] "GET /upload/iblock/930/UT000052859.jpg HTTP/1.0" 404 81420 "https://www.marsgroup.ru/catalog/detskaya_komnata/mebel_dlya_detskoy_komnaty/elektrokacheli/" "Mozilla/5.0 (Windows NT 5.1) AppleWebKit/537.36 (KHTML, like Gecko) Chrome/57.0.2987.137 YaBrowser/17.4.1.1026 Yowser/2.5 Safari/537.36"
178.205.63.100 - - [08/Apr/2021:11:24:16 +0300] "GET /upload/iblock/4e3/UT000053956.jpg HTTP/1.0" 404 81420 "https://www.marsgroup.ru/catalog/detskaya_komnata/mebel_dlya_detskoy_komnaty/elektrokacheli/" "Mozilla/5.0 (Windows NT 5.1) AppleWebKit/537.36 (KHTML, like Gecko) Chrome/57.0.2987.137 YaBrowser/17.4.1.1026 Yowser/2.5 Safari/537.36"
178.205.63.100 - - [08/Apr/2021:11:24:16 +0300] "GET /upload/iblock/da7/UT000070196.jpg HTTP/1.0" 404 81420 "https://www.marsgroup.ru/catalog/detskaya_komnata/mebel_dlya_detskoy_komnaty/elektrokacheli/" "Mozilla/5.0 (Windows NT 5.1) AppleWebKit/537.36 (KHTML, like Gecko) Chrome/57.0.2987.137 YaBrowser/17.4.1.1026 Yowser/2.5 Safari/537.36"
178.205.63.100 - - [08/Apr/2021:11:24:16 +0300] "GET /upload/iblock/94e/UT000069853.jpg HTTP/1.0" 404 81420 "https://www.marsgroup.ru/catalog/detskaya_komnata/mebel_dlya_detskoy_komnaty/elektrokacheli/" "Mozilla/5.0 (Windows NT 5.1) AppleWebKit/537.36 (KHTML, like Gecko) Chrome/57.0.2987.137 YaBrowser/17.4.1.1026 Yowser/2.5 Safari/537.36"
178.205.63.100 - - [08/Apr/2021:11:24:16 +0300] "GET /upload/iblock/b5a/UT000043107.jpg HTTP/1.0" 404 81420 "https://www.marsgroup.ru/catalog/detskaya_komnata/mebel_dlya_detskoy_komnaty/elektrokacheli/" "Mozilla/5.0 (Windows NT 5.1) AppleWebKit/537.36 (KHTML, like Gecko) Chrome/57.0.2987.137 YaBrowser/17.4.1.1026 Yowser/2.5 Safari/537.36"
178.205.63.100 - - [08/Apr/2021:11:24:15 +0300] "GET /upload/iblock/5ab/00000124823.jpg HTTP/1.0" 404 81420 "https://www.marsgroup.ru/catalog/detskaya_komnata/mebel_dlya_detskoy_komnaty/elektrokacheli/" "Mozilla/5.0 (Windows NT 5.1) AppleWebKit/537.36 (KHTML, like Gecko) Chrome/57.0.2987.137 YaBrowser/17.4.1.1026 Yowser/2.5 Safari/537.36"
167.114.173.115 - - [08/Apr/2021:11:24:19 +0300] "GET /new/?sect=337105 HTTP/1.0" 200 135604 "-" "Mozilla/5.0 (compatible; MJ12bot/v1.4.8; http://mj12bot.com/)"
54.36.148.213 - - [08/Apr/2021:11:24:21 +0300] "GET /new/?sect=380883 HTTP/1.0" 200 135600 "-" "Mozilla/5.0 (compatible; AhrefsBot/7.0; +http://ahrefs.com/robot/)"
140.238.22.111 - - [08/Apr/2021:11:24:27 +0300] "GET /index.php?xxnew2018_url1 HTTP/1.0" 500 - "-" "Mozilla/5.0 (Windows NT 10.0; Win64; x64; rv:56.0) Gecko/20100101 Firefox/56.0"
140.238.22.111 - - [08/Apr/2021:11:24:28 +0300] "GET /favicon.ico HTTP/1.0" 200 32988 "-" "Mozilla/5.0 (Windows NT 10.0; Win64; x64; rv:56.0) Gecko/20100101 Firefox/56.0"
54.36.148.84 - - [08/Apr/2021:11:24:28 +0300] "GET /new/?sect=381108 HTTP/1.0" 200 135600 "-" "Mozilla/5.0 (compatible; AhrefsBot/7.0; +http://ahrefs.com/robot/)"
167.114.173.115 - - [08/Apr/2021:11:24:32 +0300] "GET /new/?sect=337110 HTTP/1.0" 200 135604 "-" "Mozilla/5.0 (compatible; MJ12bot/v1.4.8; http://mj12bot.com/)"
77.244.79.71 - - [08/Apr/2021:11:24:35 +0300] "GET /catalog/igry_i_razvlecheniya/igrovoy_inventar/gorki/pituso_gorka_delfin_turquoise_biryuzovyy_175_42_81h/ HTTP/1.0" 200 130951 "https://www.marsgroup.ru/catalog/igry_i_razvlecheniya/igrovoy_inventar/gorki/" "Mozilla/5.0 (Windows NT 10.0; Win64; x64) AppleWebKit/537.36 (KHTML, like Gecko) Chrome/89.0.4389.114 Safari/537.36"
85.140.57.184 - - [08/Apr/2021:11:24:36 +0300] "GET /bitrix/templates/mars1/css/mobile.css?1617870275 HTTP/1.1" 200 18898 "https://www.marsgroup.ru/catalog/igry_i_razvlecheniya/igrovoy_inventar/gorki/pituso_gorka_delfin_turquoise_biryuzovyy_175_42_81h/" "Mozilla/5.0 (Windows NT 10.0; Win64; x64) AppleWebKit/537.36 (KHTML, like Gecko) Chrome/89.0.4389.114 Safari/537.36"
77.244.79.71 - - [08/Apr/2021:11:24:36 +0300] "GET /bitrix/templates/mars1/css/style.css?1617870275 HTTP/1.1" 200 52539 "https://www.marsgroup.ru/catalog/igry_i_razvlecheniya/igrovoy_inventar/gorki/pituso_gorka_delfin_turquoise_biryuzovyy_175_42_81h/" "Mozilla/5.0 (Windows NT 10.0; Win64; x64) AppleWebKit/537.36 (KHTML, like Gecko) Chrome/89.0.4389.114 Safari/537.36"
77.244.79.71 - - [08/Apr/2021:11:24:36 +0300] "GET /bitrix/templates/mars1/js/script.js?1617870275 HTTP/1.1" 200 17399 "https://www.marsgroup.ru/catalog/igry_i_razvlecheniya/igrovoy_inventar/gorki/pituso_gorka_delfin_turquoise_biryuzovyy_175_42_81h/" "Mozilla/5.0 (Windows NT 10.0; Win64; x64) AppleWebKit/537.36 (KHTML, like Gecko) Chrome/89.0.4389.114 Safari/537.36"
54.36.148.84 - - [08/Apr/2021:11:24:35 +0300] "GET /new/?sect=377884 HTTP/1.0" 200 135600 "-" "Mozilla/5.0 (compatible; AhrefsBot/7.0; +http://ahrefs.com/robot/)"
85.140.57.184 - - [08/Apr/2021:11:24:36 +0300] "GET /upload/iblock/09c/pituso_gorka_delfin_turquoise_biryuzovyy_175_42_81h.jpg HTTP/1.0" 404 81460 "https://www.marsgroup.ru/catalog/igry_i_razvlecheniya/igrovoy_inventar/gorki/pituso_gorka_delfin_turquoise_biryuzovyy_175_42_81h/" "Mozilla/5.0 (Windows NT 10.0; Win64; x64) AppleWebKit/537.36 (KHTML, like Gecko) Chrome/89.0.4389.114 Safari/537.36"
77.244.79.71 - - [08/Apr/2021:11:24:36 +0300] "GET /upload/iblock/cea/UT000070910_02.jpg HTTP/1.0" 404 81423 "https://www.marsgroup.ru/catalog/igry_i_razvlecheniya/igrovoy_inventar/gorki/pituso_gorka_delfin_turquoise_biryuzovyy_175_42_81h/" "Mozilla/5.0 (Windows NT 10.0; Win64; x64) AppleWebKit/537.36 (KHTML, like Gecko) Chrome/89.0.4389.114 Safari/537.36"
77.244.79.71 - - [08/Apr/2021:11:24:36 +0300] "GET /upload/iblock/382/UT000070910_01.jpg HTTP/1.0" 404 81423 "https://www.marsgroup.ru/catalog/igry_i_razvlecheniya/igrovoy_inventar/gorki/pituso_gorka_delfin_turquoise_biryuzovyy_175_42_81h/" "Mozilla/5.0 (Windows NT 10.0; Win64; x64) AppleWebKit/537.36 (KHTML, like Gecko) Chrome/89.0.4389.114 Safari/537.36"
77.244.79.71 - - [08/Apr/2021:11:24:36 +0300] "GET /upload/iblock/854/UT000070910_03.jpg HTTP/1.0" 404 81423 "https://www.marsgroup.ru/catalog/igry_i_razvlecheniya/igrovoy_inventar/gorki/pituso_gorka_delfin_turquoise_biryuzovyy_175_42_81h/" "Mozilla/5.0 (Windows NT 10.0; Win64; x64) AppleWebKit/537.36 (KHTML, like Gecko) Chrome/89.0.4389.114 Safari/537.36"
85.140.57.184 - - [08/Apr/2021:11:24:37 +0300] "GET /upload/iblock/1c3/UT000070910_06.jpg HTTP/1.0" 404 81423 "https://www.marsgroup.ru/catalog/igry_i_razvlecheniya/igrovoy_inventar/gorki/pituso_gorka_delfin_turquoise_biryuzovyy_175_42_81h/" "Mozilla/5.0 (Windows NT 10.0; Win64; x64) AppleWebKit/537.36 (KHTML, like Gecko) Chrome/89.0.4389.114 Safari/537.36"
85.140.57.184 - - [08/Apr/2021:11:24:36 +0300] "GET /upload/iblock/f41/UT000070910_05.jpg HTTP/1.0" 404 81423 "https://www.marsgroup.ru/catalog/igry_i_razvlecheniya/igrovoy_inventar/gorki/pituso_gorka_delfin_turquoise_biryuzovyy_175_42_81h/" "Mozilla/5.0 (Windows NT 10.0; Win64; x64) AppleWebKit/537.36 (KHTML, like Gecko) Chrome/89.0.4389.114 Safari/537.36"
85.140.57.184 - - [08/Apr/2021:11:24:37 +0300] "GET /upload/iblock/d08/UT000070910_08.jpg HTTP/1.0" 404 81423 "https://www.marsgroup.ru/catalog/igry_i_razvlecheniya/igrovoy_inventar/gorki/pituso_gorka_delfin_turquoise_biryuzovyy_175_42_81h/" "Mozilla/5.0 (Windows NT 10.0; Win64; x64) AppleWebKit/537.36 (KHTML, like Gecko) Chrome/89.0.4389.114 Safari/537.36"
77.244.79.71 - - [08/Apr/2021:11:24:38 +0300] "GET /upload/iblock/6ad/UT000070910_07.jpg HTTP/1.0" 404 81423 "https://www.marsgroup.ru/catalog/igry_i_razvlecheniya/igrovoy_inventar/gorki/pituso_gorka_delfin_turquoise_biryuzovyy_175_42_81h/" "Mozilla/5.0 (Windows NT 10.0; Win64; x64) AppleWebKit/537.36 (KHTML, like Gecko) Chrome/89.0.4389.114 Safari/537.36"
85.140.57.184 - - [08/Apr/2021:11:24:36 +0300] "GET /upload/iblock/bce/UT000070910_04.jpg HTTP/1.0" 404 81423 "https://www.marsgroup.ru/catalog/igry_i_razvlecheniya/igrovoy_inventar/gorki/pituso_gorka_delfin_turquoise_biryuzovyy_175_42_81h/" "Mozilla/5.0 (Windows NT 10.0; Win64; x64) AppleWebKit/537.36 (KHTML, like Gecko) Chrome/89.0.4389.114 Safari/537.36"
140.238.22.111 - - [08/Apr/2021:11:24:39 +0300] "GET /index.php?xxnew2018_url1 HTTP/1.0" 500 - "-" "Mozilla/5.0 (Windows NT 10.0; Win64; x64; rv:56.0) Gecko/20100101 Firefox/56.0"
85.140.57.184 - - [08/Apr/2021:11:24:37 +0300] "GET /upload/iblock/fcd/UT000070910_09.jpg HTTP/1.0" 404 81423 "https://www.marsgroup.ru/catalog/igry_i_razvlecheniya/igrovoy_inventar/gorki/pituso_gorka_delfin_turquoise_biryuzovyy_175_42_81h/" "Mozilla/5.0 (Windows NT 10.0; Win64; x64) AppleWebKit/537.36 (KHTML, like Gecko) Chrome/89.0.4389.114 Safari/537.36"
77.244.79.71 - - [08/Apr/2021:11:24:39 +0300] "GET /sp-push-worker-fb.js HTTP/1.0" 404 81407 "https://www.marsgroup.ru/catalog/igry_i_razvlecheniya/igrovoy_inventar/gorki/pituso_gorka_delfin_turquoise_biryuzovyy_175_42_81h/" "Mozilla/5.0 (Windows NT 10.0; Win64; x64) AppleWebKit/537.36 (KHTML, like Gecko) Chrome/89.0.4389.114 Safari/537.36"
114.119.150.49 - - [08/Apr/2021:11:24:44 +0300] "GET /upload/resize_cache/iblock/6b4/442_442_1/UT000066799_4.jpg HTTP/1.0" 404 81445 "-" "Mozilla/5.0 (Linux; Android 7.0;) AppleWebKit/537.36 (KHTML, like Gecko) Mobile Safari/537.36 (compatible; PetalBot;+https://aspiegel.com/petalbot)"
54.36.148.127 - - [08/Apr/2021:11:24:44 +0300] "GET /new/?sect=380877 HTTP/1.0" 200 135600 "-" "Mozilla/5.0 (compatible; AhrefsBot/7.0; +http://ahrefs.com/robot/)"
54.144.139.222 - - [08/Apr/2021:11:24:45 +0300] "GET /catalog/tekstil/vse_dlya_sna/postelnye_prinadlezhnosti/odeyala/odeyalo_baykovoe_detskoe_100kh118_282122_biryuz/ HTTP/1.0" 200 126119 "-" "MauiBot (crawler.feedback+wc@gmail.com)"
213.180.203.35 - - [08/Apr/2021:11:24:47 +0300] "GET /catalog/detskaya_komnata/mebel_dlya_detskoy_komnaty/elektrokacheli/ HTTP/1.0" 200 111437 "-" "Mozilla/5.0 (compatible; YandexBot/3.0; +http://yandex.com/bots)"
167.114.173.115 - - [08/Apr/2021:11:24:51 +0300] "GET /new/?sect=360478 HTTP/1.0" 200 135604 "-" "Mozilla/5.0 (compatible; MJ12bot/v1.4.8; http://mj12bot.com/)"
140.238.22.111 - - [08/Apr/2021:11:24:53 +0300] "GET /p?xxnew2018_url1 HTTP/1.0" 500 - "-" "Mozilla/5.0 (Windows NT 10.0; Win64; x64; rv:56.0) Gecko/20100101 Firefox/56.0"
77.244.79.71 - - [08/Apr/2021:11:24:54 +0300] "GET / HTTP/1.0" 500 - "https://www.yandex.ru/" "Mozilla/5.0 (Windows NT 10.0; Win64; x64) AppleWebKit/537.36 (KHTML, like Gecko) Chrome/89.0.4389.114 Safari/537.36"
54.36.148.84 - - [08/Apr/2021:11:24:53 +0300] "GET /new/?sect=377895 HTTP/1.0" 200 135600 "-" "Mozilla/5.0 (compatible; AhrefsBot/7.0; +http://ahrefs.com/robot/)"
77.244.79.71 - - [08/Apr/2021:11:24:58 +0300] "GET / HTTP/1.0" 500 - "https://www.yandex.ru/" "Mozilla/5.0 (Windows NT 10.0; Win64; x64) AppleWebKit/537.36 (KHTML, like Gecko) Chrome/89.0.4389.114 Safari/537.36"
54.36.148.84 - - [08/Apr/2021:11:24:59 +0300] "GET /new/?sect=380878 HTTP/1.0" 200 135600 "-" "Mozilla/5.0 (compatible; AhrefsBot/7.0; +http://ahrefs.com/robot/)"
