<svg 
 xmlns="http://www.w3.org/2000/svg"
 xmlns:xlink="http://www.w3.org/1999/xlink"
 width="10px" height="17px">
<path fill-rule="evenodd"  fill="rgb(120, 120, 120)"
 d="M9.544,9.838 L2.527,16.579 C1.940,17.143 1.000,17.131 0.428,16.552 C-0.144,15.973 -0.132,15.046 0.456,14.482 L6.682,8.500 L0.456,2.518 C-0.132,1.954 -0.144,1.027 0.428,0.448 C1.000,-0.132 1.940,-0.144 2.527,0.420 L9.544,7.162 C9.920,7.523 10.033,8.028 9.936,8.500 C10.033,8.972 9.920,9.477 9.544,9.838 Z"/>
</svg>